{
    "ion-alert": "&#xf101;",
    "ion-alert-circled": "&#xf100;",
    "ion-android-add": "&#xf2c7;",
    "ion-android-add-circle": "&#xf359;",
    "ion-android-alarm-clock": "&#xf35a;",
    "ion-android-alert": "&#xf35b;",
    "ion-android-apps": "&#xf35c;",
    "ion-android-archive": "&#xf2c9;",
    "ion-android-arrow-back": "&#xf2ca;",
    "ion-android-arrow-down": "&#xf35d;",
    "ion-android-arrow-dropdown": "&#xf35f;",
    "ion-android-arrow-dropdown-circle": "&#xf35e;",
    "ion-android-arrow-dropleft": "&#xf361;",
    "ion-android-arrow-dropleft-circle": "&#xf360;",
    "ion-android-arrow-dropright": "&#xf363;",
    "ion-android-arrow-dropright-circle": "&#xf362;",
    "ion-android-arrow-dropup": "&#xf365;",
    "ion-android-arrow-dropup-circle": "&#xf364;",
    "ion-android-arrow-forward": "&#xf30f;",
    "ion-android-arrow-up": "&#xf366;",
    "ion-android-attach": "&#xf367;",
    "ion-android-bar": "&#xf368;",
    "ion-android-bicycle": "&#xf369;",
    "ion-android-boat": "&#xf36a;",
    "ion-android-bookmark": "&#xf36b;",
    "ion-android-bulb": "&#xf36c;",
    "ion-android-bus": "&#xf36d;",
    "ion-android-calendar": "&#xf2d1;",
    "ion-android-call": "&#xf2d2;",
    "ion-android-camera": "&#xf2d3;",
    "ion-android-cancel": "&#xf36e;",
    "ion-android-car": "&#xf36f;",
    "ion-android-cart": "&#xf370;",
    "ion-android-chat": "&#xf2d4;",
    "ion-android-checkbox": "&#xf374;",
    "ion-android-checkbox-blank": "&#xf371;",
    "ion-android-checkbox-outline": "&#xf373;",
    "ion-android-checkbox-outline-blank": "&#xf372;",
    "ion-android-checkmark-circle": "&#xf375;",
    "ion-android-clipboard": "&#xf376;",
    "ion-android-close": "&#xf2d7;",
    "ion-android-cloud": "&#xf37a;",
    "ion-android-cloud-circle": "&#xf377;",
    "ion-android-cloud-done": "&#xf378;",
    "ion-android-cloud-outline": "&#xf379;",
    "ion-android-color-palette": "&#xf37b;",
    "ion-android-compass": "&#xf37c;",
    "ion-android-contact": "&#xf2d8;",
    "ion-android-contacts": "&#xf2d9;",
    "ion-android-contract": "&#xf37d;",
    "ion-android-create": "&#xf37e;",
    "ion-android-delete": "&#xf37f;",
    "ion-android-desktop": "&#xf380;",
    "ion-android-document": "&#xf381;",
    "ion-android-done": "&#xf383;",
    "ion-android-done-all": "&#xf382;",
    "ion-android-download": "&#xf2dd;",
    "ion-android-drafts": "&#xf384;",
    "ion-android-exit": "&#xf385;",
    "ion-android-expand": "&#xf386;",
    "ion-android-favorite": "&#xf388;",
    "ion-android-favorite-outline": "&#xf387;",
    "ion-android-film": "&#xf389;",
    "ion-android-folder": "&#xf2e0;",
    "ion-android-folder-open": "&#xf38a;",
    "ion-android-funnel": "&#xf38b;",
    "ion-android-globe": "&#xf38c;",
    "ion-android-hand": "&#xf2e3;",
    "ion-android-hangout": "&#xf38d;",
    "ion-android-happy": "&#xf38e;",
    "ion-android-home": "&#xf38f;",
    "ion-android-image": "&#xf2e4;",
    "ion-android-laptop": "&#xf390;",
    "ion-android-list": "&#xf391;",
    "ion-android-locate": "&#xf2e9;",
    "ion-android-lock": "&#xf392;",
    "ion-android-mail": "&#xf2eb;",
    "ion-android-map": "&#xf393;",
    "ion-android-menu": "&#xf394;",
    "ion-android-microphone": "&#xf2ec;",
    "ion-android-microphone-off": "&#xf395;",
    "ion-android-more-horizontal": "&#xf396;",
    "ion-android-more-vertical": "&#xf397;",
    "ion-android-navigate": "&#xf398;",
    "ion-android-notifications": "&#xf39b;",
    "ion-android-notifications-none": "&#xf399;",
    "ion-android-notifications-off": "&#xf39a;",
    "ion-android-open": "&#xf39c;",
    "ion-android-options": "&#xf39d;",
    "ion-android-people": "&#xf39e;",
    "ion-android-person": "&#xf3a0;",
    "ion-android-person-add": "&#xf39f;",
    "ion-android-phone-landscape": "&#xf3a1;",
    "ion-android-phone-portrait": "&#xf3a2;",
    "ion-android-pin": "&#xf3a3;",
    "ion-android-plane": "&#xf3a4;",
    "ion-android-playstore": "&#xf2f0;",
    "ion-android-print": "&#xf3a5;",
    "ion-android-radio-button-off": "&#xf3a6;",
    "ion-android-radio-button-on": "&#xf3a7;",
    "ion-android-refresh": "&#xf3a8;",
    "ion-android-remove": "&#xf2f4;",
    "ion-android-remove-circle": "&#xf3a9;",
    "ion-android-restaurant": "&#xf3aa;",
    "ion-android-sad": "&#xf3ab;",
    "ion-android-search": "&#xf2f5;",
    "ion-android-send": "&#xf2f6;",
    "ion-android-settings": "&#xf2f7;",
    "ion-android-share": "&#xf2f8;",
    "ion-android-share-alt": "&#xf3ac;",
    "ion-android-star": "&#xf2fc;",
    "ion-android-star-half": "&#xf3ad;",
    "ion-android-star-outline": "&#xf3ae;",
    "ion-android-stopwatch": "&#xf2fd;",
    "ion-android-subway": "&#xf3af;",
    "ion-android-sunny": "&#xf3b0;",
    "ion-android-sync": "&#xf3b1;",
    "ion-android-textsms": "&#xf3b2;",
    "ion-android-time": "&#xf3b3;",
    "ion-android-train": "&#xf3b4;",
    "ion-android-unlock": "&#xf3b5;",
    "ion-android-upload": "&#xf3b6;",
    "ion-android-volume-down": "&#xf3b7;",
    "ion-android-volume-mute": "&#xf3b8;",
    "ion-android-volume-off": "&#xf3b9;",
    "ion-android-volume-up": "&#xf3ba;",
    "ion-android-walk": "&#xf3bb;",
    "ion-android-warning": "&#xf3bc;",
    "ion-android-watch": "&#xf3bd;",
    "ion-android-wifi": "&#xf305;",
    "ion-aperture": "&#xf313;",
    "ion-archive": "&#xf102;",
    "ion-arrow-down-a": "&#xf103;",
    "ion-arrow-down-b": "&#xf104;",
    "ion-arrow-down-c": "&#xf105;",
    "ion-arrow-expand": "&#xf25e;",
    "ion-arrow-graph-down-left": "&#xf25f;",
    "ion-arrow-graph-down-right": "&#xf260;",
    "ion-arrow-graph-up-left": "&#xf261;",
    "ion-arrow-graph-up-right": "&#xf262;",
    "ion-arrow-left-a": "&#xf106;",
    "ion-arrow-left-b": "&#xf107;",
    "ion-arrow-left-c": "&#xf108;",
    "ion-arrow-move": "&#xf263;",
    "ion-arrow-resize": "&#xf264;",
    "ion-arrow-return-left": "&#xf265;",
    "ion-arrow-return-right": "&#xf266;",
    "ion-arrow-right-a": "&#xf109;",
    "ion-arrow-right-b": "&#xf10a;",
    "ion-arrow-right-c": "&#xf10b;",
    "ion-arrow-shrink": "&#xf267;",
    "ion-arrow-swap": "&#xf268;",
    "ion-arrow-up-a": "&#xf10c;",
    "ion-arrow-up-b": "&#xf10d;",
    "ion-arrow-up-c": "&#xf10e;",
    "ion-asterisk": "&#xf314;",
    "ion-at": "&#xf10f;",
    "ion-backspace": "&#xf3bf;",
    "ion-backspace-outline": "&#xf3be;",
    "ion-bag": "&#xf110;",
    "ion-battery-charging": "&#xf111;",
    "ion-battery-empty": "&#xf112;",
    "ion-battery-full": "&#xf113;",
    "ion-battery-half": "&#xf114;",
    "ion-battery-low": "&#xf115;",
    "ion-beaker": "&#xf269;",
    "ion-beer": "&#xf26a;",
    "ion-bluetooth": "&#xf116;",
    "ion-bonfire": "&#xf315;",
    "ion-bookmark": "&#xf26b;",
    "ion-bowtie": "&#xf3c0;",
    "ion-briefcase": "&#xf26c;",
    "ion-bug": "&#xf2be;",
    "ion-calculator": "&#xf26d;",
    "ion-calendar": "&#xf117;",
    "ion-camera": "&#xf118;",
    "ion-card": "&#xf119;",
    "ion-cash": "&#xf316;",
    "ion-chatbox": "&#xf11b;",
    "ion-chatbox-working": "&#xf11a;",
    "ion-chatboxes": "&#xf11c;",
    "ion-chatbubble": "&#xf11e;",
    "ion-chatbubble-working": "&#xf11d;",
    "ion-chatbubbles": "&#xf11f;",
    "ion-checkmark": "&#xf122;",
    "ion-checkmark-circled": "&#xf120;",
    "ion-checkmark-round": "&#xf121;",
    "ion-chevron-down": "&#xf123;",
    "ion-chevron-left": "&#xf124;",
    "ion-chevron-right": "&#xf125;",
    "ion-chevron-up": "&#xf126;",
    "ion-clipboard": "&#xf127;",
    "ion-clock": "&#xf26e;",
    "ion-close": "&#xf12a;",
    "ion-close-circled": "&#xf128;",
    "ion-close-round": "&#xf129;",
    "ion-closed-captioning": "&#xf317;",
    "ion-cloud": "&#xf12b;",
    "ion-code": "&#xf271;",
    "ion-code-download": "&#xf26f;",
    "ion-code-working": "&#xf270;",
    "ion-coffee": "&#xf272;",
    "ion-compass": "&#xf273;",
    "ion-compose": "&#xf12c;",
    "ion-connection-bars": "&#xf274;",
    "ion-contrast": "&#xf275;",
    "ion-crop": "&#xf3c1;",
    "ion-cube": "&#xf318;",
    "ion-disc": "&#xf12d;",
    "ion-document": "&#xf12f;",
    "ion-document-text": "&#xf12e;",
    "ion-drag": "&#xf130;",
    "ion-earth": "&#xf276;",
    "ion-easel": "&#xf3c2;",
    "ion-edit": "&#xf2bf;",
    "ion-egg": "&#xf277;",
    "ion-eject": "&#xf131;",
    "ion-email": "&#xf132;",
    "ion-email-unread": "&#xf3c3;",
    "ion-erlenmeyer-flask": "&#xf3c5;",
    "ion-erlenmeyer-flask-bubbles": "&#xf3c4;",
    "ion-eye": "&#xf133;",
    "ion-eye-disabled": "&#xf306;",
    "ion-female": "&#xf278;",
    "ion-filing": "&#xf134;",
    "ion-film-marker": "&#xf135;",
    "ion-fireball": "&#xf319;",
    "ion-flag": "&#xf279;",
    "ion-flame": "&#xf31a;",
    "ion-flash": "&#xf137;",
    "ion-flash-off": "&#xf136;",
    "ion-folder": "&#xf139;",
    "ion-fork": "&#xf27a;",
    "ion-fork-repo": "&#xf2c0;",
    "ion-forward": "&#xf13a;",
    "ion-funnel": "&#xf31b;",
    "ion-gear-a": "&#xf13d;",
    "ion-gear-b": "&#xf13e;",
    "ion-grid": "&#xf13f;",
    "ion-hammer": "&#xf27b;",
    "ion-happy": "&#xf31c;",
    "ion-happy-outline": "&#xf3c6;",
    "ion-headphone": "&#xf140;",
    "ion-heart": "&#xf141;",
    "ion-heart-broken": "&#xf31d;",
    "ion-help": "&#xf143;",
    "ion-help-buoy": "&#xf27c;",
    "ion-help-circled": "&#xf142;",
    "ion-home": "&#xf144;",
    "ion-icecream": "&#xf27d;",
    "ion-image": "&#xf147;",
    "ion-images": "&#xf148;",
    "ion-information": "&#xf14a;",
    "ion-information-circled": "&#xf149;",
    "ion-ionic": "&#xf14b;",
    "ion-ios-alarm": "&#xf3c8;",
    "ion-ios-alarm-outline": "&#xf3c7;",
    "ion-ios-albums": "&#xf3ca;",
    "ion-ios-albums-outline": "&#xf3c9;",
    "ion-ios-americanfootball": "&#xf3cc;",
    "ion-ios-americanfootball-outline": "&#xf3cb;",
    "ion-ios-analytics": "&#xf3ce;",
    "ion-ios-analytics-outline": "&#xf3cd;",
    "ion-ios-arrow-back": "&#xf3cf;",
    "ion-ios-arrow-down": "&#xf3d0;",
    "ion-ios-arrow-forward": "&#xf3d1;",
    "ion-ios-arrow-left": "&#xf3d2;",
    "ion-ios-arrow-right": "&#xf3d3;",
    "ion-ios-arrow-thin-down": "&#xf3d4;",
    "ion-ios-arrow-thin-left": "&#xf3d5;",
    "ion-ios-arrow-thin-right": "&#xf3d6;",
    "ion-ios-arrow-thin-up": "&#xf3d7;",
    "ion-ios-arrow-up": "&#xf3d8;",
    "ion-ios-at": "&#xf3da;",
    "ion-ios-at-outline": "&#xf3d9;",
    "ion-ios-barcode": "&#xf3dc;",
    "ion-ios-barcode-outline": "&#xf3db;",
    "ion-ios-baseball": "&#xf3de;",
    "ion-ios-baseball-outline": "&#xf3dd;",
    "ion-ios-basketball": "&#xf3e0;",
    "ion-ios-basketball-outline": "&#xf3df;",
    "ion-ios-bell": "&#xf3e2;",
    "ion-ios-bell-outline": "&#xf3e1;",
    "ion-ios-body": "&#xf3e4;",
    "ion-ios-body-outline": "&#xf3e3;",
    "ion-ios-bolt": "&#xf3e6;",
    "ion-ios-bolt-outline": "&#xf3e5;",
    "ion-ios-book": "&#xf3e8;",
    "ion-ios-book-outline": "&#xf3e7;",
    "ion-ios-bookmarks": "&#xf3ea;",
    "ion-ios-bookmarks-outline": "&#xf3e9;",
    "ion-ios-box": "&#xf3ec;",
    "ion-ios-box-outline": "&#xf3eb;",
    "ion-ios-briefcase": "&#xf3ee;",
    "ion-ios-briefcase-outline": "&#xf3ed;",
    "ion-ios-browsers": "&#xf3f0;",
    "ion-ios-browsers-outline": "&#xf3ef;",
    "ion-ios-calculator": "&#xf3f2;",
    "ion-ios-calculator-outline": "&#xf3f1;",
    "ion-ios-calendar": "&#xf3f4;",
    "ion-ios-calendar-outline": "&#xf3f3;",
    "ion-ios-camera": "&#xf3f6;",
    "ion-ios-camera-outline": "&#xf3f5;",
    "ion-ios-cart": "&#xf3f8;",
    "ion-ios-cart-outline": "&#xf3f7;",
    "ion-ios-chatboxes": "&#xf3fa;",
    "ion-ios-chatboxes-outline": "&#xf3f9;",
    "ion-ios-chatbubble": "&#xf3fc;",
    "ion-ios-chatbubble-outline": "&#xf3fb;",
    "ion-ios-checkmark": "&#xf3ff;",
    "ion-ios-checkmark-empty": "&#xf3fd;",
    "ion-ios-checkmark-outline": "&#xf3fe;",
    "ion-ios-circle-filled": "&#xf400;",
    "ion-ios-circle-outline": "&#xf401;",
    "ion-ios-clock": "&#xf403;",
    "ion-ios-clock-outline": "&#xf402;",
    "ion-ios-close": "&#xf406;",
    "ion-ios-close-empty": "&#xf404;",
    "ion-ios-close-outline": "&#xf405;",
    "ion-ios-cloud": "&#xf40c;",
    "ion-ios-cloud-download": "&#xf408;",
    "ion-ios-cloud-download-outline": "&#xf407;",
    "ion-ios-cloud-outline": "&#xf409;",
    "ion-ios-cloud-upload": "&#xf40b;",
    "ion-ios-cloud-upload-outline": "&#xf40a;",
    "ion-ios-cloudy": "&#xf410;",
    "ion-ios-cloudy-night": "&#xf40e;",
    "ion-ios-cloudy-night-outline": "&#xf40d;",
    "ion-ios-cloudy-outline": "&#xf40f;",
    "ion-ios-cog": "&#xf412;",
    "ion-ios-cog-outline": "&#xf411;",
    "ion-ios-color-filter": "&#xf414;",
    "ion-ios-color-filter-outline": "&#xf413;",
    "ion-ios-color-wand": "&#xf416;",
    "ion-ios-color-wand-outline": "&#xf415;",
    "ion-ios-compose": "&#xf418;",
    "ion-ios-compose-outline": "&#xf417;",
    "ion-ios-contact": "&#xf41a;",
    "ion-ios-contact-outline": "&#xf419;",
    "ion-ios-copy": "&#xf41c;",
    "ion-ios-copy-outline": "&#xf41b;",
    "ion-ios-crop": "&#xf41e;",
    "ion-ios-crop-strong": "&#xf41d;",
    "ion-ios-download": "&#xf420;",
    "ion-ios-download-outline": "&#xf41f;",
    "ion-ios-drag": "&#xf421;",
    "ion-ios-email": "&#xf423;",
    "ion-ios-email-outline": "&#xf422;",
    "ion-ios-eye": "&#xf425;",
    "ion-ios-eye-outline": "&#xf424;",
    "ion-ios-fastforward": "&#xf427;",
    "ion-ios-fastforward-outline": "&#xf426;",
    "ion-ios-filing": "&#xf429;",
    "ion-ios-filing-outline": "&#xf428;",
    "ion-ios-film": "&#xf42b;",
    "ion-ios-film-outline": "&#xf42a;",
    "ion-ios-flag": "&#xf42d;",
    "ion-ios-flag-outline": "&#xf42c;",
    "ion-ios-flame": "&#xf42f;",
    "ion-ios-flame-outline": "&#xf42e;",
    "ion-ios-flask": "&#xf431;",
    "ion-ios-flask-outline": "&#xf430;",
    "ion-ios-flower": "&#xf433;",
    "ion-ios-flower-outline": "&#xf432;",
    "ion-ios-folder": "&#xf435;",
    "ion-ios-folder-outline": "&#xf434;",
    "ion-ios-football": "&#xf437;",
    "ion-ios-football-outline": "&#xf436;",
    "ion-ios-game-controller-a": "&#xf439;",
    "ion-ios-game-controller-a-outline": "&#xf438;",
    "ion-ios-game-controller-b": "&#xf43b;",
    "ion-ios-game-controller-b-outline": "&#xf43a;",
    "ion-ios-gear": "&#xf43d;",
    "ion-ios-gear-outline": "&#xf43c;",
    "ion-ios-glasses": "&#xf43f;",
    "ion-ios-glasses-outline": "&#xf43e;",
    "ion-ios-grid-view": "&#xf441;",
    "ion-ios-grid-view-outline": "&#xf440;",
    "ion-ios-heart": "&#xf443;",
    "ion-ios-heart-outline": "&#xf442;",
    "ion-ios-help": "&#xf446;",
    "ion-ios-help-empty": "&#xf444;",
    "ion-ios-help-outline": "&#xf445;",
    "ion-ios-home": "&#xf448;",
    "ion-ios-home-outline": "&#xf447;",
    "ion-ios-infinite": "&#xf44a;",
    "ion-ios-infinite-outline": "&#xf449;",
    "ion-ios-information": "&#xf44d;",
    "ion-ios-information-empty": "&#xf44b;",
    "ion-ios-information-outline": "&#xf44c;",
    "ion-ios-ionic-outline": "&#xf44e;",
    "ion-ios-keypad": "&#xf450;",
    "ion-ios-keypad-outline": "&#xf44f;",
    "ion-ios-lightbulb": "&#xf452;",
    "ion-ios-lightbulb-outline": "&#xf451;",
    "ion-ios-list": "&#xf454;",
    "ion-ios-list-outline": "&#xf453;",
    "ion-ios-location": "&#xf456;",
    "ion-ios-location-outline": "&#xf455;",
    "ion-ios-locked": "&#xf458;",
    "ion-ios-locked-outline": "&#xf457;",
    "ion-ios-loop": "&#xf45a;",
    "ion-ios-loop-strong": "&#xf459;",
    "ion-ios-medical": "&#xf45c;",
    "ion-ios-medical-outline": "&#xf45b;",
    "ion-ios-medkit": "&#xf45e;",
    "ion-ios-medkit-outline": "&#xf45d;",
    "ion-ios-mic": "&#xf461;",
    "ion-ios-mic-off": "&#xf45f;",
    "ion-ios-mic-outline": "&#xf460;",
    "ion-ios-minus": "&#xf464;",
    "ion-ios-minus-empty": "&#xf462;",
    "ion-ios-minus-outline": "&#xf463;",
    "ion-ios-monitor": "&#xf466;",
    "ion-ios-monitor-outline": "&#xf465;",
    "ion-ios-moon": "&#xf468;",
    "ion-ios-moon-outline": "&#xf467;",
    "ion-ios-more": "&#xf46a;",
    "ion-ios-more-outline": "&#xf469;",
    "ion-ios-musical-note": "&#xf46b;",
    "ion-ios-musical-notes": "&#xf46c;",
    "ion-ios-navigate": "&#xf46e;",
    "ion-ios-navigate-outline": "&#xf46d;",
    "ion-ios-nutrition": "&#xf470;",
    "ion-ios-nutrition-outline": "&#xf46f;",
    "ion-ios-paper": "&#xf472;",
    "ion-ios-paper-outline": "&#xf471;",
    "ion-ios-paperplane": "&#xf474;",
    "ion-ios-paperplane-outline": "&#xf473;",
    "ion-ios-partlysunny": "&#xf476;",
    "ion-ios-partlysunny-outline": "&#xf475;",
    "ion-ios-pause": "&#xf478;",
    "ion-ios-pause-outline": "&#xf477;",
    "ion-ios-paw": "&#xf47a;",
    "ion-ios-paw-outline": "&#xf479;",
    "ion-ios-people": "&#xf47c;",
    "ion-ios-people-outline": "&#xf47b;",
    "ion-ios-person": "&#xf47e;",
    "ion-ios-person-outline": "&#xf47d;",
    "ion-ios-personadd": "&#xf480;",
    "ion-ios-personadd-outline": "&#xf47f;",
    "ion-ios-photos": "&#xf482;",
    "ion-ios-photos-outline": "&#xf481;",
    "ion-ios-pie": "&#xf484;",
    "ion-ios-pie-outline": "&#xf483;",
    "ion-ios-pint": "&#xf486;",
    "ion-ios-pint-outline": "&#xf485;",
    "ion-ios-play": "&#xf488;",
    "ion-ios-play-outline": "&#xf487;",
    "ion-ios-plus": "&#xf48b;",
    "ion-ios-plus-empty": "&#xf489;",
    "ion-ios-plus-outline": "&#xf48a;",
    "ion-ios-pricetag": "&#xf48d;",
    "ion-ios-pricetag-outline": "&#xf48c;",
    "ion-ios-pricetags": "&#xf48f;",
    "ion-ios-pricetags-outline": "&#xf48e;",
    "ion-ios-printer": "&#xf491;",
    "ion-ios-printer-outline": "&#xf490;",
    "ion-ios-pulse": "&#xf493;",
    "ion-ios-pulse-strong": "&#xf492;",
    "ion-ios-rainy": "&#xf495;",
    "ion-ios-rainy-outline": "&#xf494;",
    "ion-ios-recording": "&#xf497;",
    "ion-ios-recording-outline": "&#xf496;",
    "ion-ios-redo": "&#xf499;",
    "ion-ios-redo-outline": "&#xf498;",
    "ion-ios-refresh": "&#xf49c;",
    "ion-ios-refresh-empty": "&#xf49a;",
    "ion-ios-refresh-outline": "&#xf49b;",
    "ion-ios-reload": "&#xf49d;",
    "ion-ios-reverse-camera": "&#xf49f;",
    "ion-ios-reverse-camera-outline": "&#xf49e;",
    "ion-ios-rewind": "&#xf4a1;",
    "ion-ios-rewind-outline": "&#xf4a0;",
    "ion-ios-rose": "&#xf4a3;",
    "ion-ios-rose-outline": "&#xf4a2;",
    "ion-ios-search": "&#xf4a5;",
    "ion-ios-search-strong": "&#xf4a4;",
    "ion-ios-settings": "&#xf4a7;",
    "ion-ios-settings-strong": "&#xf4a6;",
    "ion-ios-shuffle": "&#xf4a9;",
    "ion-ios-shuffle-strong": "&#xf4a8;",
    "ion-ios-skipbackward": "&#xf4ab;",
    "ion-ios-skipbackward-outline": "&#xf4aa;",
    "ion-ios-skipforward": "&#xf4ad;",
    "ion-ios-skipforward-outline": "&#xf4ac;",
    "ion-ios-snowy": "&#xf4ae;",
    "ion-ios-speedometer": "&#xf4b0;",
    "ion-ios-speedometer-outline": "&#xf4af;",
    "ion-ios-star": "&#xf4b3;",
    "ion-ios-star-half": "&#xf4b1;",
    "ion-ios-star-outline": "&#xf4b2;",
    "ion-ios-stopwatch": "&#xf4b5;",
    "ion-ios-stopwatch-outline": "&#xf4b4;",
    "ion-ios-sunny": "&#xf4b7;",
    "ion-ios-sunny-outline": "&#xf4b6;",
    "ion-ios-telephone": "&#xf4b9;",
    "ion-ios-telephone-outline": "&#xf4b8;",
    "ion-ios-tennisball": "&#xf4bb;",
    "ion-ios-tennisball-outline": "&#xf4ba;",
    "ion-ios-thunderstorm": "&#xf4bd;",
    "ion-ios-thunderstorm-outline": "&#xf4bc;",
    "ion-ios-time": "&#xf4bf;",
    "ion-ios-time-outline": "&#xf4be;",
    "ion-ios-timer": "&#xf4c1;",
    "ion-ios-timer-outline": "&#xf4c0;",
    "ion-ios-toggle": "&#xf4c3;",
    "ion-ios-toggle-outline": "&#xf4c2;",
    "ion-ios-trash": "&#xf4c5;",
    "ion-ios-trash-outline": "&#xf4c4;",
    "ion-ios-undo": "&#xf4c7;",
    "ion-ios-undo-outline": "&#xf4c6;",
    "ion-ios-unlocked": "&#xf4c9;",
    "ion-ios-unlocked-outline": "&#xf4c8;",
    "ion-ios-upload": "&#xf4cb;",
    "ion-ios-upload-outline": "&#xf4ca;",
    "ion-ios-videocam": "&#xf4cd;",
    "ion-ios-videocam-outline": "&#xf4cc;",
    "ion-ios-volume-high": "&#xf4ce;",
    "ion-ios-volume-low": "&#xf4cf;",
    "ion-ios-wineglass": "&#xf4d1;",
    "ion-ios-wineglass-outline": "&#xf4d0;",
    "ion-ios-world": "&#xf4d3;",
    "ion-ios-world-outline": "&#xf4d2;",
    "ion-ipad": "&#xf1f9;",
    "ion-iphone": "&#xf1fa;",
    "ion-ipod": "&#xf1fb;",
    "ion-jet": "&#xf295;",
    "ion-key": "&#xf296;",
    "ion-knife": "&#xf297;",
    "ion-laptop": "&#xf1fc;",
    "ion-leaf": "&#xf1fd;",
    "ion-levels": "&#xf298;",
    "ion-lightbulb": "&#xf299;",
    "ion-link": "&#xf1fe;",
    "ion-load-a": "&#xf29a;",
    "ion-load-b": "&#xf29b;",
    "ion-load-c": "&#xf29c;",
    "ion-load-d": "&#xf29d;",
    "ion-location": "&#xf1ff;",
    "ion-lock-combination": "&#xf4d4;",
    "ion-locked": "&#xf200;",
    "ion-log-in": "&#xf29e;",
    "ion-log-out": "&#xf29f;",
    "ion-loop": "&#xf201;",
    "ion-magnet": "&#xf2a0;",
    "ion-male": "&#xf2a1;",
    "ion-man": "&#xf202;",
    "ion-map": "&#xf203;",
    "ion-medkit": "&#xf2a2;",
    "ion-merge": "&#xf33f;",
    "ion-mic-a": "&#xf204;",
    "ion-mic-b": "&#xf205;",
    "ion-mic-c": "&#xf206;",
    "ion-minus": "&#xf209;",
    "ion-minus-circled": "&#xf207;",
    "ion-minus-round": "&#xf208;",
    "ion-model-s": "&#xf2c1;",
    "ion-monitor": "&#xf20a;",
    "ion-more": "&#xf20b;",
    "ion-mouse": "&#xf340;",
    "ion-music-note": "&#xf20c;",
    "ion-navicon": "&#xf20e;",
    "ion-navicon-round": "&#xf20d;",
    "ion-navigate": "&#xf2a3;",
    "ion-network": "&#xf341;",
    "ion-no-smoking": "&#xf2c2;",
    "ion-nuclear": "&#xf2a4;",
    "ion-outlet": "&#xf342;",
    "ion-paintbrush": "&#xf4d5;",
    "ion-paintbucket": "&#xf4d6;",
    "ion-paper-airplane": "&#xf2c3;",
    "ion-paperclip": "&#xf20f;",
    "ion-pause": "&#xf210;",
    "ion-person": "&#xf213;",
    "ion-person-add": "&#xf211;",
    "ion-person-stalker": "&#xf212;",
    "ion-pie-graph": "&#xf2a5;",
    "ion-pin": "&#xf2a6;",
    "ion-pinpoint": "&#xf2a7;",
    "ion-pizza": "&#xf2a8;",
    "ion-plane": "&#xf214;",
    "ion-planet": "&#xf343;",
    "ion-play": "&#xf215;",
    "ion-playstation": "&#xf30a;",
    "ion-plus": "&#xf218;",
    "ion-plus-circled": "&#xf216;",
    "ion-plus-round": "&#xf217;",
    "ion-podium": "&#xf344;",
    "ion-pound": "&#xf219;",
    "ion-power": "&#xf2a9;",
    "ion-pricetag": "&#xf2aa;",
    "ion-pricetags": "&#xf2ab;",
    "ion-printer": "&#xf21a;",
    "ion-pull-request": "&#xf345;",
    "ion-qr-scanner": "&#xf346;",
    "ion-quote": "&#xf347;",
    "ion-radio-waves": "&#xf2ac;",
    "ion-record": "&#xf21b;",
    "ion-refresh": "&#xf21c;",
    "ion-reply": "&#xf21e;",
    "ion-reply-all": "&#xf21d;",
    "ion-ribbon-a": "&#xf348;",
    "ion-ribbon-b": "&#xf349;",
    "ion-sad": "&#xf34a;",
    "ion-sad-outline": "&#xf4d7;",
    "ion-scissors": "&#xf34b;",
    "ion-search": "&#xf21f;",
    "ion-settings": "&#xf2ad;",
    "ion-share": "&#xf220;",
    "ion-shuffle": "&#xf221;",
    "ion-skip-backward": "&#xf222;",
    "ion-skip-forward": "&#xf223;",
    "ion-social-android": "&#xf225;",
    "ion-social-android-outline": "&#xf224;",
    "ion-social-angular": "&#xf4d9;",
    "ion-social-angular-outline": "&#xf4d8;",
    "ion-social-apple": "&#xf227;",
    "ion-social-apple-outline": "&#xf226;",
    "ion-social-bitcoin": "&#xf2af;",
    "ion-social-bitcoin-outline": "&#xf2ae;",
    "ion-social-buffer": "&#xf229;",
    "ion-social-buffer-outline": "&#xf228;",
    "ion-social-chrome": "&#xf4db;",
    "ion-social-chrome-outline": "&#xf4da;",
    "ion-social-codepen": "&#xf4dd;",
    "ion-social-codepen-outline": "&#xf4dc;",
    "ion-social-css3": "&#xf4df;",
    "ion-social-css3-outline": "&#xf4de;",
    "ion-social-designernews": "&#xf22b;",
    "ion-social-designernews-outline": "&#xf22a;",
    "ion-social-dribbble": "&#xf22d;",
    "ion-social-dribbble-outline": "&#xf22c;",
    "ion-social-dropbox": "&#xf22f;",
    "ion-social-dropbox-outline": "&#xf22e;",
    "ion-social-euro": "&#xf4e1;",
    "ion-social-euro-outline": "&#xf4e0;",
    "ion-social-facebook": "&#xf231;",
    "ion-social-facebook-outline": "&#xf230;",
    "ion-social-foursquare": "&#xf34d;",
    "ion-social-foursquare-outline": "&#xf34c;",
    "ion-social-freebsd-devil": "&#xf2c4;",
    "ion-social-github": "&#xf233;",
    "ion-social-github-outline": "&#xf232;",
    "ion-social-google": "&#xf34f;",
    "ion-social-google-outline": "&#xf34e;",
    "ion-social-googleplus": "&#xf235;",
    "ion-social-googleplus-outline": "&#xf234;",
    "ion-social-hackernews": "&#xf237;",
    "ion-social-hackernews-outline": "&#xf236;",
    "ion-social-html5": "&#xf4e3;",
    "ion-social-html5-outline": "&#xf4e2;",
    "ion-social-instagram": "&#xf351;",
    "ion-social-instagram-outline": "&#xf350;",
    "ion-social-javascript": "&#xf4e5;",
    "ion-social-javascript-outline": "&#xf4e4;",
    "ion-social-linkedin": "&#xf239;",
    "ion-social-linkedin-outline": "&#xf238;",
    "ion-social-markdown": "&#xf4e6;",
    "ion-social-nodejs": "&#xf4e7;",
    "ion-social-octocat": "&#xf4e8;",
    "ion-social-pinterest": "&#xf2b1;",
    "ion-social-pinterest-outline": "&#xf2b0;",
    "ion-social-python": "&#xf4e9;",
    "ion-social-reddit": "&#xf23b;",
    "ion-social-reddit-outline": "&#xf23a;",
    "ion-social-rss": "&#xf23d;",
    "ion-social-rss-outline": "&#xf23c;",
    "ion-social-sass": "&#xf4ea;",
    "ion-social-skype": "&#xf23f;",
    "ion-social-skype-outline": "&#xf23e;",
    "ion-social-snapchat": "&#xf4ec;",
    "ion-social-snapchat-outline": "&#xf4eb;",
    "ion-social-tumblr": "&#xf241;",
    "ion-social-tumblr-outline": "&#xf240;",
    "ion-social-tux": "&#xf2c5;",
    "ion-social-twitch": "&#xf4ee;",
    "ion-social-twitch-outline": "&#xf4ed;",
    "ion-social-twitter": "&#xf243;",
    "ion-social-twitter-outline": "&#xf242;",
    "ion-social-usd": "&#xf353;",
    "ion-social-usd-outline": "&#xf352;",
    "ion-social-vimeo": "&#xf245;",
    "ion-social-vimeo-outline": "&#xf244;",
    "ion-social-whatsapp": "&#xf4f0;",
    "ion-social-whatsapp-outline": "&#xf4ef;",
    "ion-social-windows": "&#xf247;",
    "ion-social-windows-outline": "&#xf246;",
    "ion-social-wordpress": "&#xf249;",
    "ion-social-wordpress-outline": "&#xf248;",
    "ion-social-yahoo": "&#xf24b;",
    "ion-social-yahoo-outline": "&#xf24a;",
    "ion-social-yen": "&#xf4f2;",
    "ion-social-yen-outline": "&#xf4f1;",
    "ion-social-youtube": "&#xf24d;",
    "ion-social-youtube-outline": "&#xf24c;",
    "ion-soup-can": "&#xf4f4;",
    "ion-soup-can-outline": "&#xf4f3;",
    "ion-speakerphone": "&#xf2b2;",
    "ion-speedometer": "&#xf2b3;",
    "ion-spoon": "&#xf2b4;",
    "ion-star": "&#xf24e;",
    "ion-stats-bars": "&#xf2b5;",
    "ion-steam": "&#xf30b;",
    "ion-stop": "&#xf24f;",
    "ion-thermometer": "&#xf2b6;",
    "ion-thumbsdown": "&#xf250;",
    "ion-thumbsup": "&#xf251;",
    "ion-toggle": "&#xf355;",
    "ion-toggle-filled": "&#xf354;",
    "ion-transgender": "&#xf4f5;",
    "ion-trash-a": "&#xf252;",
    "ion-trash-b": "&#xf253;",
    "ion-trophy": "&#xf356;",
    "ion-tshirt": "&#xf4f7;",
    "ion-tshirt-outline": "&#xf4f6;",
    "ion-umbrella": "&#xf2b7;",
    "ion-university": "&#xf357;",
    "ion-unlocked": "&#xf254;",
    "ion-upload": "&#xf255;",
    "ion-usb": "&#xf2b8;",
    "ion-videocamera": "&#xf256;",
    "ion-volume-high": "&#xf257;",
    "ion-volume-low": "&#xf258;",
    "ion-volume-medium": "&#xf259;",
    "ion-volume-mute": "&#xf25a;",
    "ion-wand": "&#xf358;",
    "ion-waterdrop": "&#xf25b;",
    "ion-wifi": "&#xf25c;",
    "ion-wineglass": "&#xf2b9;",
    "ion-woman": "&#xf25d;",
    "ion-wrench": "&#xf2ba;",
    "ion-xbox": "&#xf30c;"
  }